07:29:20 ===> SQLSTATE[23000]: Integrity constraint violation: 1048 Column 'password' cannot be null

07:29:45 ===> SQLSTATE[23000]: Integrity constraint violation: 1048 Column 'password' cannot be null

07:33:05 ===> SQLSTATE[23000]: Integrity constraint violation: 1048 Column 'password' cannot be null

07:33:17 ===> SQLSTATE[23000]: Integrity constraint violation: 1048 Column 'password' cannot be null

07:34:07 ===> SQLSTATE[23000]: Integrity constraint violation: 1048 Column 'password' cannot be null

07:34:19 ===> SQLSTATE[23000]: Integrity constraint violation: 1048 Column 'password' cannot be null

07:35:32 ===> SQLSTATE[23000]: Integrity constraint violation: 1048 Column 'password' cannot be null

07:36:03 ===> SQLSTATE[23000]: Integrity constraint violation: 1048 Column 'password' cannot be null

